Read 1M wordsRead 2M wordsRead 2M words
Number of words:  25178
Number of labels: 0
20141x25178
1613465 <-> 1613465
Lipschitz 6.61083395 1049.00000000 14806.07534089
Bayes Optimal Model 6.48330840
anorm 6237.05808369
0.00000500 0.00001000
Current Loss 15.47120981
Computed Sparse Gradient with number of Nonzeros: 11662666 0.00000000
compute svd
Rank of Solution 375
Current Loss 14.46834290
Computed Sparse Gradient with number of Nonzeros: 11506293 0.00000000
compute svd
Rank of Solution 417
Current Loss 14.92703290
Computed Sparse Gradient with number of Nonzeros: 11457304 0.00000000
compute svd
Rank of Solution 440
Current Loss 15.27638008
Computed Sparse Gradient with number of Nonzeros: 11375120 0.00000000
compute svd
Rank of Solution 450
Current Loss 14.68755044
Computed Sparse Gradient with number of Nonzeros: 11677012 0.00000000
compute svd
Rank of Solution 456
Current Loss 14.72520221
Computed Sparse Gradient with number of Nonzeros: 11664185 0.00000000
compute svd
Rank of Solution 458
Current Loss 14.74763698
Computed Sparse Gradient with number of Nonzeros: 11649830 0.00000000
compute svd
Rank of Solution 461
Current Loss 15.20741437
Computed Sparse Gradient with number of Nonzeros: 11103720 0.00000000
compute svd
Rank of Solution 463
Current Loss 14.77892682
Computed Sparse Gradient with number of Nonzeros: 11656802 0.00000000
compute svd
Rank of Solution 456
Current Loss 14.88327438
Computed Sparse Gradient with number of Nonzeros: 11468622 0.00000000
compute svd
Rank of Solution 449
Current Loss 14.70978037
Computed Sparse Gradient with number of Nonzeros: 11676659 0.00000000
compute svd
Rank of Solution 438
Current Loss 14.61938619
Computed Sparse Gradient with number of Nonzeros: 11155003 0.00000000
compute svd
Rank of Solution 428
Current Loss 14.72241929
Computed Sparse Gradient with number of Nonzeros: 11658426 0.00000000
compute svd
Rank of Solution 415
Current Loss 14.57837474
Computed Sparse Gradient with number of Nonzeros: 11437489 0.00000000
compute svd
Rank of Solution 404
Current Loss 15.70700607
Computed Sparse Gradient with number of Nonzeros: 10623827 0.00000000
compute svd
Rank of Solution 399
Current Loss 14.88934751
Computed Sparse Gradient with number of Nonzeros: 11467440 0.00000000
compute svd
Rank of Solution 388
Current Loss 14.79232026
Computed Sparse Gradient with number of Nonzeros: 11561283 0.00000001
compute svd
Rank of Solution 380
Current Loss 14.91099015
Computed Sparse Gradient with number of Nonzeros: 11522065 0.00000000
compute svd
Rank of Solution 375
Current Loss 14.74459787
Computed Sparse Gradient with number of Nonzeros: 11645518 0.00000000
compute svd
Rank of Solution 371
Current Loss 15.29345920
Computed Sparse Gradient with number of Nonzeros: 11385456 0.00000000
compute svd
Rank of Solution 366
Current Loss 14.81952280
Computed Sparse Gradient with number of Nonzeros: 10881355 0.00000000
compute svd
Rank of Solution 360
Current Loss 16.45025525
Computed Sparse Gradient with number of Nonzeros: 9684357 0.00000000
compute svd
Rank of Solution 362
Current Loss 14.60964248
Computed Sparse Gradient with number of Nonzeros: 11603888 0.00000000
compute svd
Rank of Solution 352
Current Loss 14.62115483
Computed Sparse Gradient with number of Nonzeros: 11675582 0.00000000
compute svd
Rank of Solution 347
Current Loss 14.68909094
Computed Sparse Gradient with number of Nonzeros: 11672645 0.00000000
compute svd
Rank of Solution 342
Current Loss 14.62716451
Computed Sparse Gradient with number of Nonzeros: 11675806 0.00000000
compute svd
Rank of Solution 338
Current Loss 14.64084139
Computed Sparse Gradient with number of Nonzeros: 11677506 0.00000000
compute svd
Rank of Solution 337
Current Loss 14.69707811
Computed Sparse Gradient with number of Nonzeros: 11674266 0.00000000
compute svd
Rank of Solution 334
Current Loss 14.58547665
Computed Sparse Gradient with number of Nonzeros: 11562264 0.00000000
compute svd
Rank of Solution 327
Current Loss 14.76972590
Computed Sparse Gradient with number of Nonzeros: 11100306 0.00000000
compute svd
Rank of Solution 339
Current Loss 14.55866839
Computed Sparse Gradient with number of Nonzeros: 11485546 0.00000000
compute svd
Rank of Solution 313
Current Loss 17.20258079
Computed Sparse Gradient with number of Nonzeros: 9704818 0.00000000
compute svd
Rank of Solution 320
Current Loss 17.83130184
Computed Sparse Gradient with number of Nonzeros: 8367357 0.00000000
compute svd
Rank of Solution 332
Current Loss 15.17523567
Computed Sparse Gradient with number of Nonzeros: 10147525 0.00000000
compute svd
Rank of Solution 335
Current Loss 14.63884959
Computed Sparse Gradient with number of Nonzeros: 11667492 0.00000000
compute svd
Rank of Solution 335
Current Loss 14.60962571
Computed Sparse Gradient with number of Nonzeros: 11439347 0.00000002
compute svd
Rank of Solution 329
Current Loss 15.03293751
Computed Sparse Gradient with number of Nonzeros: 11407666 0.00000000
compute svd
Rank of Solution 328
Current Loss 14.60320500
Computed Sparse Gradient with number of Nonzeros: 11677196 0.00000000
compute svd
Rank of Solution 324
Current Loss 14.90327639
Computed Sparse Gradient with number of Nonzeros: 11654206 0.00000000
compute svd
Rank of Solution 318
Current Loss 14.55332543
Computed Sparse Gradient with number of Nonzeros: 11676622 0.00000000
compute svd
Rank of Solution 317
Current Loss 14.53452423
Computed Sparse Gradient with number of Nonzeros: 11580081 0.00000000
compute svd
Rank of Solution 313
Current Loss 14.59368214
Computed Sparse Gradient with number of Nonzeros: 11679548 0.00000000
compute svd
Rank of Solution 310
Current Loss 14.66663185
Computed Sparse Gradient with number of Nonzeros: 11676861 0.00000000
compute svd
Rank of Solution 309
Current Loss 15.00442085
Computed Sparse Gradient with number of Nonzeros: 11451613 0.00000000
compute svd
Rank of Solution 306
Current Loss 14.78573624
Computed Sparse Gradient with number of Nonzeros: 11655616 0.00000000
compute svd
Rank of Solution 303
Current Loss 14.71938686
Computed Sparse Gradient with number of Nonzeros: 11398383 0.00000000
compute svd
Rank of Solution 306
Current Loss 14.59188639
Computed Sparse Gradient with number of Nonzeros: 11674741 0.00000000
compute svd
Rank of Solution 305
Current Loss 14.58740877
Computed Sparse Gradient with number of Nonzeros: 11671347 0.00000000
compute svd
Rank of Solution 307
Current Loss 14.47044546
Computed Sparse Gradient with number of Nonzeros: 11662479 0.00000000
compute svd
Rank of Solution 302
Current Loss 14.56918730
Computed Sparse Gradient with number of Nonzeros: 11678772 0.00000000
compute svd
Rank of Solution 303
4456.91740190	874.87541696	628.65668211	539.99177982	486.07300028	456.88383507	419.81588675	387.99376276	361.33595240	359.17980787	325.53322699	311.21604528	277.56554629	267.59114859	259.07198418	245.35392714	229.85604759	205.01637944	190.83918501	178.57565988	158.35004712	150.48995506	144.13193074	139.76621547	136.45776078	130.08105707	125.05014985	111.85942234	102.73513283	97.43695501	93.68452382	86.42483580	84.73895314	77.00531678	74.85922187	71.69810792	67.95154046	59.38511537	57.32138819	54.92553932	54.05872169	49.38299706	48.52112621	45.83438715	45.03844424	43.09337272	39.49163775	39.28716143	38.41949284	38.01170793	37.14981117	35.74193733	34.85586488	34.23198165	33.23017251	32.85505893	32.37019107	31.49659035	29.88560116	29.09102878	28.61225412	27.33414151	27.06150291	25.56815032	24.71815957	24.34829577	23.65685747	22.79736703	22.42226721	22.29807516	21.96478585	20.99707580	20.21360006	19.67426854	19.46230605	18.77551560	18.69199698	18.38380124	18.07066175	17.76321272	17.37952790	17.10876254	16.52977895	16.12531286	16.06391787	15.73690883	15.52606598	15.06976499	14.83042052	14.57166053	14.25412314	14.05972832	13.87552353	13.49978877	13.13659510	13.01790142	12.65392455	12.39187558	12.30168738	11.77446592	11.64775592	11.47757726	11.15346417	11.10265470	10.86669432	10.59471238	10.39654658	10.26419310	10.09144616	9.95863570	9.80993102	9.57096306	9.43810663	9.36406738	9.10754215	8.95503721	8.81814339	8.73788660	8.59574023	8.37268627	8.26642891	8.22094841	8.09874448	7.98574861	7.95559435	7.89274766	7.83064287	7.62328531	7.58723956	7.46193794	7.35122903	7.15294342	7.10939877	7.04275865	6.97983574	6.91253394	6.85381937	6.65326423	6.57427615	6.55155196	6.42012862	6.37397992	6.24992819	6.14303109	6.12334041	6.00286118	5.95487202	5.86713583	5.79371776	5.71815601	5.67311042	5.63167861	5.53732881	5.35192010	5.28154006	5.22996792	5.16101630	5.06827641	4.94451193	4.88750270	4.85650344	4.79104664	4.76294840	4.72824183	4.62319822	4.61408465	4.56071249	4.51419546	4.43992743	4.39395126	4.32866792	4.24550029	4.19694731	4.13718144	4.11135704	4.06709063	4.00092407	3.92854710	3.90023853	3.87916692	3.82948083	3.74527958	3.71909946	3.60370409	3.57996714	3.54340896	3.51451548	3.48379392	3.46631497	3.42517794	3.35150501	3.33431112	3.26563850	3.22938786	3.18721496	3.11962406	3.09820917	3.04414747	2.95203950	2.91355025	2.88070396	2.85587210	2.75807043	2.75201927	2.69991992	2.68037963	2.60817933	2.58865278	2.52488406	2.49161190	2.45875972	2.40448182	2.33630759	2.29933002	2.25810368	2.23882292	2.19617046	2.16872060	2.10128544	2.06887823	2.02055239	2.00063545	1.98147899	1.95046301	1.91475893	1.88843323	1.84478048	1.80153138	1.74840193	1.72982177	1.71113049	1.69417380	1.64643195	1.62565556	1.60028592	1.55409105	1.53623528	1.50981042	1.44159004	1.43512005	1.37251161	1.36069995	1.34309703	1.32646227	1.30722971	1.26044344	1.24129231	1.22582803	1.19243373	1.13538845	1.12711219	1.11475371	1.08605068	1.03090947	1.02670888	1.01659053	0.97366278	0.94977357	0.93635847	0.92423588	0.90436488	0.86763327	0.84949773	0.83500903	0.82242363	0.79141640	0.76110270	0.74186719	0.71319384	0.67808573	0.65904546	0.64090201	0.63466737	0.59996713	0.58789630	0.56046490	0.53384705	0.50069559	0.49379434	0.47806519	0.46012944	0.42869000	0.42299329	0.38135445	0.36030693	0.33633654	0.30164978	0.29671234	0.28105323	0.26606977	0.24697864	0.23498598	0.22377271	0.19579047	0.17547557	0.16543751	0.13769161	0.12494597	0.08315228	0.07460065	0.03971701	0.01955397	0.01363454	(303)
Read 0M words
Number of words:  5124
Number of labels: 0
5000x5124
341985 <-> 341985
Lipschitz 7.73860753 554.00000000 6116.91319213
Bayes Optimal Model 6.21596729
anorm 2769.16571619
0.00000000 0.00010000
Soft Thresholding at 0.00000100
Current Loss 13.33601887
Computed Sparse Gradient with number of Nonzeros: 11412695 0.00000420
compute svd
recompute svd 3.06299147
recompute svd 1.61758976
recompute svd 0.83290736
recompute svd 0.29493121
recompute svd 0.00502629
Read 0M words
Number of words:  5124
Number of labels: 0
5000x5124
341985 <-> 341985
Lipschitz 7.73860753 554.00000000 6116.91319213
Bayes Optimal Model 6.21596729
anorm 2769.16571619
0.00000000 0.00010000
Soft Thresholding at 0.12922221
Current Loss 13.31497345
Computed Sparse Gradient with number of Nonzeros: 11368572 0.00000250
compute svd
recompute svd 3.07790443
recompute svd 1.61876486
Read 0M words
Number of words:  5124
Number of labels: 0
5000x5124
341985 <-> 341985
Lipschitz 7.73860753 554.00000000 6116.91319213
Bayes Optimal Model 6.21596729
anorm 2769.16571619
0.00000000 0.00010000
Soft Thresholding at 0.12922221
Current Loss 13.30970291
Computed Sparse Gradient with number of Nonzeros: 11411289 0.00000322
compute svd
recompute svd 3.05930978
recompute svd 1.61923322
recompute svd 0.83206768
recompute svd 0.29499505
Rank of Solution 4111 540.35853534 - 0.00011696
Current Loss 13.30678509
Computed Sparse Gradient with number of Nonzeros: 11201024 0.00000573
compute svd
Rank of Solution 4424 669.85114188 - 0.00040562
Current Loss 14.29452232
Computed Sparse Gradient with number of Nonzeros: 7343444 0.00000000
compute svd
Rank of Solution 4502 694.87724593 - 0.00033750
Current Loss 14.04772894
Computed Sparse Gradient with number of Nonzeros: 8880168 0.00000000
compute svd
Rank of Solution 4534 723.33460430 - 0.00032679
Current Loss 13.66943857
Computed Sparse Gradient with number of Nonzeros: 10093982 0.00000000
compute svd
Rank of Solution 4551 754.50087585 - 0.00035466
Current Loss 13.44519435
Computed Sparse Gradient with number of Nonzeros: 10960800 0.00000000
compute svd
Rank of Solution 4563 786.07839565 - 0.00040084
Current Loss 13.38778532
Computed Sparse Gradient with number of Nonzeros: 11064653 0.00000004
compute svd
Rank of Solution 4569 822.16524252 - 0.00014685
Current Loss 13.50922471
Computed Sparse Gradient with number of Nonzeros: 10817348 0.00000000
compute svd
Rank of Solution 4573 826.63604682 - 0.00013898
Current Loss 13.34375512
Computed Sparse Gradient with number of Nonzeros: 11254311 0.00000005
compute svd
Rank of Solution 4574 836.81309136 - 0.00036544
Current Loss 13.34911080
Computed Sparse Gradient with number of Nonzeros: 11204279 0.00000013
compute svd
Rank of Solution 4577 861.00435808 - 0.00015284
Current Loss 13.35714668
Computed Sparse Gradient with number of Nonzeros: 11253474 0.00000003
compute svd
Rank of Solution 4577 889.50648181 - 0.00004291
Current Loss 13.50871927
Computed Sparse Gradient with number of Nonzeros: 10803280 0.00000000
compute svd
Rank of Solution 4577 906.45253938 - 0.00040240
Current Loss 13.44619762
Computed Sparse Gradient with number of Nonzeros: 10783485 0.00000000
compute svd
Rank of Solution 4581 923.58463373 - 0.00006700
Current Loss 13.36867101
Computed Sparse Gradient with number of Nonzeros: 11218550 0.00000001
compute svd
Rank of Solution 4581 954.67186911 - 0.00008512
Current Loss 13.36739169
Computed Sparse Gradient with number of Nonzeros: 11239584 0.00000000
compute svd
Rank of Solution 4581 981.33510179 - 0.00020121
Current Loss 13.44244511
Computed Sparse Gradient with number of Nonzeros: 11036811 0.00000000
compute svd
Rank of Solution 4582 990.64781299 - 0.00002308
Current Loss 13.39220300
Computed Sparse Gradient with number of Nonzeros: 11016775 0.00000006
compute svd
Rank of Solution 4583 999.32154632 - 0.00009649
Current Loss 13.39378286
Computed Sparse Gradient with number of Nonzeros: 11132738 0.00000004
compute svd
Rank of Solution 4581 1028.55164255 - 0.00022449
Current Loss 13.38340308
Computed Sparse Gradient with number of Nonzeros: 11113412 0.00000005
compute svd
Rank of Solution 4581 1039.84881135 - 0.00005639
Current Loss 13.44166779
Computed Sparse Gradient with number of Nonzeros: 10456580 0.00000002
compute svd
Rank of Solution 4583 1072.65493870 - 0.00004374
1072.65493870	1029.17389707	982.97275387	973.15884452	924.81065839	912.40409582	897.92225921	886.45919693	878.60527158	852.19742866	845.94211387	829.07225178	818.97844237	798.90397376	790.76685763	774.19570113	764.80410659	749.27026704	729.00986192	726.08871336	712.61318733	696.40818317	694.64267285	685.64720519	671.83664499	668.28236532	655.92880323	646.61031526	643.13614590	634.14738631	618.92161005	606.27496329	599.85454653	592.77331607	588.96804563	580.34994131	571.34931924	570.10666106	556.19550224	543.83640020	543.37483435	538.13328528	530.26178006	523.02330834	515.87809061	512.85714237	503.07712425	494.40797450	492.48073050	488.93012584	479.17403684	473.35387487	468.46291115	462.28727094	459.08143065	453.60941824	453.42898109	449.91659683	442.53199472	434.97062882	426.04012273	422.91290400	415.70621593	414.47384239	412.46644623	406.78311606	404.54948839	397.70172357	390.21103348	388.97341171	382.20167097	381.03184090	380.06695013	370.75811117	366.91739468	365.43832936	362.22294757	357.49943178	349.04243203	344.28337902	344.14406546	337.70577002	336.63337243	335.06717719	330.48078683	329.10027977	324.39964483	321.86249449	315.85136698	314.70725839	313.54960829	311.42373912	305.95615397	301.93516840	299.32138301	293.17959974	291.43425925	287.08054871	286.65614923	280.98579975	279.29712810	277.30665648	273.21992085	270.55968391	264.97793517	262.17761606	260.76987556	257.74213599	257.38657661	255.79536966	250.62519732	249.50979973	248.03109474	243.92296450	238.60550025	237.14763333	233.33616571	229.33398735	228.92877776	227.21019402	225.04946279	219.94421359	219.44953277	218.73293393	212.93414301	211.63234788	209.20383164	207.23016964	204.72258576	202.46786508	201.33810576	200.35952342	195.35175668	193.94831477	192.75806426	189.00201932	187.12136443	184.84490771	183.28156821	182.60442006	181.18011411	178.44746984	175.94247181	174.56864050	172.16049292	171.15528865	166.75063118	166.36163626	163.96578678	163.26650141	161.07656457	160.07873113	157.74515620	157.17821713	156.71480335	153.03632209	151.73166183	150.68863192	149.12862414	148.22444664	146.92209525	144.03808088	143.24343765	142.46042452	141.23261315	139.65259714	137.49470288	136.09432946	135.72855225	131.99391095	131.22158269	130.97714872	130.16381592	129.02415880	127.79761541	123.90185875	123.47832402	121.99120108	120.88140517	119.27013073	118.31049670	117.01255470	115.60206059	113.97836950	112.66863337	111.60746902	109.33572907	108.39053930	107.64018365	105.97841266	104.79157734	102.88723999	102.84897976	100.05397148	99.56259566	96.91005476	96.64778266	95.06420212	93.89521365	92.62991587	90.36451069	89.53196447	88.21676676	86.37903074	86.15094260	85.48218847	82.92089088	82.22526733	80.64817551	80.18356058	77.40750805	75.19559859	73.24404445	71.80803913	70.07306492	68.80509041	66.91095060	66.35045914	64.27183409	61.14837681	59.48593596	56.02066362	54.25159520	52.93958734	52.19707169	49.65329071	47.77255677	45.88504058	45.76579924	41.89017171	40.14477283	38.87629203	37.65487502	36.62806601	35.88965052	34.90102919	34.44834978	34.26713483	33.34731940	32.70218157	32.53628458	32.09801298	31.86522971	31.31699895	31.06440844	30.56037469	30.22287968	29.92037489	29.53560418	29.50439744	28.93928293	28.75842878	28.60837252	27.84488712	27.79300453	27.39750412	27.24831699	27.03759684	26.83137821	26.25113352	26.03459159	25.87594258	25.63953017	25.48211920	25.26821982	24.95148759	24.85755757	24.53742229	24.39160415	24.12235868	23.89310908	23.73806204	23.61030194	23.34274372	23.19652733	23.09338850	23.08123362	22.95342708	22.67036714	22.59027813	22.44190868	22.23275245	22.13453633	22.03159245	21.88452575	21.75659659	21.54905039	21.41091382	21.30425183	21.19972423	21.09406709	20.93049888	20.90096824	20.82206580	20.75114087	20.59480570	20.43119811	20.34383613	20.27062065	20.20182703	20.00748044	19.93846646	19.82453931	19.76994919	19.62699124	19.47413992	19.41551814	19.38414341	19.31294822	19.26388476	19.12697656	18.97733635	18.91609838	18.89154514	18.76574930	18.73777052	18.59832859	18.46870929	18.37814499	18.32828489	18.24546986	18.15251595	18.10125746	18.03070219	17.93934190	17.89116342	17.74595303	17.68879124	17.58398543	17.53963609	17.48130485	17.42388121	17.36388036	17.29373368	17.24066359	17.18163512	17.08744405	16.98374746	16.90585943	16.81085717	16.70198464	16.68921885	16.65672927	16.56716303	16.53062724	16.38193248	16.31561876	16.30914186	16.23623314	16.17187389	16.10200127	16.04693049	15.92535636	15.91341300	15.82607416	15.76227933	15.73266243	15.69317793	15.64017281	15.55581217	15.44106450	15.37649832	15.33915128	15.25067137	15.24320790	15.21908240	15.17251518	14.97880467	14.90091127	14.88867745	14.80661268	14.77162099	14.72289857	14.68211690	14.61220939	14.56075367	14.55847964	14.49110929	14.45900906	14.39303704	14.32555432	14.22224419	14.20025968	14.15507997	14.10532029	14.07068527	14.03557696	13.95676246	13.92596937	13.88961159	13.83785100	13.79742612	13.77143606	13.67645612	13.64699493	13.59238791	13.58980302	13.52765597	13.49180153	13.41269961	13.36504052	13.31461172	13.26745313	13.24057376	13.21352383	13.18042926	13.13311945	13.10558055	13.04791314	13.01693903	12.97864635	12.90481452	12.90166290	12.85464035	12.75976370	12.73597472	12.68405407	12.67515423	12.64698881	12.59685947	12.54809803	12.53056279	12.46759054	12.41776867	12.40146055	12.36464226	12.35542891	12.30851255	12.26284827	12.21721948	12.17461893	12.17317585	12.11715450	12.06073867	12.03974817	11.99342282	11.97518092	11.93429481	11.85874682	11.84283534	11.79580348	11.77628863	11.74052209	11.72948298	11.67910236	11.65445340	11.63249592	11.59524254	11.53138526	11.50825836	11.49247638	11.45085416	11.39252953	11.38202790	11.35505394	11.31448845	11.29012334	11.25177844	11.23060227	11.19922634	11.14689586	11.13679355	11.09389006	11.05847046	11.02264957	11.00207715	10.97033554	10.95587870	10.93037661	10.90290480	10.89380519	10.84484135	10.82610480	10.77380230	10.74534883	10.72871955	10.71840308	10.65564784	10.64134875	10.62364029	10.57876527	10.55450250	10.54121941	10.50235729	10.47153566	10.45686542	10.43733639	10.42908407	10.39719021	10.35342348	10.34763178	10.32447299	10.31255599	10.27301549	10.26529339	10.20572719	10.19188483	10.16835108	10.13640299	10.12900811	10.08399172	10.06354123	10.01593864	9.99521787	9.96465767	9.94712532	9.91855262	9.88917673	9.88855378	9.84755928	9.83234145	9.80984295	9.77351134	9.75304697	9.72896236	9.69866549	9.68389395	9.66085404	9.64000253	9.62931941	9.59535165	9.58624544	9.56308938	9.54594849	9.50579270	9.49728781	9.44059057	9.42501892	9.40461315	9.38642392	9.37661828	9.34853361	9.31607573	9.31353087	9.28626278	9.25092862	9.22444253	9.19436821	9.18592246	9.14422357	9.13242091	9.11705499	9.09363599	9.07887432	9.06252289	9.04075003	9.02213728	9.00444615	8.99202725	8.94808896	8.93449804	8.91905869	8.89395438	8.87163899	8.86133892	8.82772699	8.82213498	8.80914306	8.78069389	8.76524271	8.72715592	8.71855546	8.68948353	8.67162219	8.66084955	8.65375139	8.63979601	8.62277970	8.60111876	8.57371028	8.56824735	8.54155714	8.49804952	8.48792324	8.46366636	8.46218999	8.42706704	8.41650405	8.41363839	8.37830176	8.34969143	8.33977967	8.32869449	8.31327585	8.29108701	8.27553555	8.25680249	8.24250308	8.21431888	8.20217492	8.19633609	8.18150147	8.16453109	8.14769246	8.11915586	8.09614444	8.07824980	8.05448519	8.03646182	8.02761519	8.01033213	7.99628520	7.98220333	7.97662993	7.96250398	7.94930652	7.93640039	7.90858191	7.89986173	7.86209198	7.86114869	7.82377199	7.81669657	7.80427336	7.79233506	7.78465235	7.77050083	7.74253222	7.73497470	7.72548498	7.70359980	7.68055921	7.65587854	7.64811944	7.63245389	7.61313668	7.60355280	7.58712681	7.57552907	7.55685833	7.53232113	7.52136259	7.51027503	7.49178671	7.48854729	7.47199024	7.46310466	7.44440312	7.43599356	7.40985764	7.39025114	7.36996762	7.35291879	7.34951457	7.32970559	7.31910024	7.31498334	7.29389540	7.27737981	7.26929365	7.25250081	7.24471149	7.22904028	7.21299859	7.19223994	7.16997825	7.16026212	7.15455210	7.12902264	7.11453124	7.10290515	7.09669714	7.07459127	7.06464816	7.05314153	7.04107512	7.02521242	7.01879188	6.99489516	6.98568101	6.97572925	6.96286138	6.95475836	6.94769525	6.94155783	6.91037309	6.90050009	6.89187239	6.88433894	6.85471753	6.83382686	6.83138294	6.81905404	6.80620457	6.80198320	6.79025337	6.77691073	6.76237169	6.74383578	6.73706681	6.71768919	6.70927681	6.69926184	6.68675891	6.66039225	6.64454896	6.64082733	6.63134149	6.61980435	6.60695244	6.59308341	6.58961886	6.58649627	6.56531585	6.55331953	6.54124734	6.53537415	6.53500022	6.52471091	6.51427154	6.49642357	6.48129256	6.46661495	6.45241497	6.44278070	6.43276781	6.41978847	6.41611146	6.39475104	6.38823525	6.38184034	6.37586962	6.35189666	6.34364143	6.33651750	6.31873874	6.30062978	6.28863837	6.28110923	6.26994753	6.26224268	6.24658279	6.23548768	6.23221168	6.22325736	6.20201832	6.18734114	6.17801382	6.17231670	6.16994811	6.14843961	6.13113632	6.12852032	6.11820200	6.10755447	6.09206006	6.08578945	6.08055931	6.07579162	6.06728642	6.04959956	6.03796126	6.03372947	6.02349623	5.99781723	5.99345807	5.97804890	5.97129023	5.96099549	5.95544855	5.94801729	5.93689038	5.93352275	5.92150660	5.91193569	5.90596568	5.90275585	5.88953623	5.87287114	5.86622152	5.85942163	5.84575230	5.83304171	5.83096810	5.81993889	5.81750650	5.80556167	5.79811016	5.78919097	5.77933269	5.75552099	5.74797549	5.73920666	5.73373523	5.71707957	5.71298192	5.69757779	5.67973316	5.67376442	5.67190993	5.66161635	5.65723700	5.65215682	5.63486380	5.63041341	5.62201441	5.61250702	5.60765008	5.59852560	5.59001501	5.57889641	5.57768530	5.56965908	5.55621381	5.55059735	5.54104312	5.52798885	5.52323131	5.51598300	5.51277680	5.50471392	5.49360991	5.48969866	5.47628702	5.46214053	5.45953018	5.44441627	5.43958888	5.42658962	5.41854690	5.41307020	5.40942224	5.40010691	5.39819080	5.38894128	5.37616862	5.37502175	5.35140611	5.34378406	5.34068339	5.33091753	5.31970092	5.30755116	5.30161331	5.30025339	5.29417463	5.28944330	5.27894331	5.27759730	5.26450705	5.25105439	5.24880042	5.24208569	5.23191170	5.22782018	5.22090912	5.21198942	5.20282034	5.19719473	5.19088450	5.18151802	5.16491036	5.16302577	5.15948984	5.15584206	5.14225663	5.13443253	5.13028211	5.11876959	5.11273282	5.09590551	5.09015128	5.08439097	5.08111040	5.06970644	5.06451421	5.05775472	5.05268602	5.03962651	5.03667276	5.02192424	5.01730736	5.01214587	5.00448508	4.99811134	4.99579681	4.98781587	4.97884974	4.97034592	4.96440212	4.94787448	4.94483329	4.93926621	4.93599027	4.92877678	4.90910987	4.90791744	4.90227849	4.89539013	4.89172317	4.88441205	4.87774049	4.86918492	4.86286923	4.86128781	4.85086095	4.83983771	4.83274425	4.82644720	4.81804189	4.80797351	4.80285994	4.79395821	4.78625782	4.78043706	4.77482025	4.77000880	4.76596840	4.76081817	4.75525493	4.75110712	4.74120217	4.73651775	4.73064994	4.72890695	4.71997510	4.70813294	4.70573559	4.69232495	4.68794301	4.67785369	4.67058983	4.66505229	4.65924852	4.65641411	4.64868697	4.64402297	4.63746927	4.62770617	4.62607757	4.62186104	4.60920138	4.59808634	4.59112738	4.58838697	4.58732126	4.57420371	4.56388099	4.55216588	4.54787643	4.54445658	4.53854390	4.53329305	4.52882756	4.51570700	4.51143062	4.50518592	4.50134318	4.49270359	4.48974804	4.48715220	4.48640794	4.47823366	4.46396224	4.45826261	4.45229727	4.44906176	4.44513037	4.44313318	4.43469372	4.42928338	4.42593080	4.41883688	4.41454535	4.40790937	4.39964417	4.39105566	4.38536017	4.38263701	4.37530830	4.37095935	4.36796780	4.36338595	4.35167478	4.34694863	4.34132555	4.33411550	4.32892797	4.32044791	4.31845478	4.31349135	4.30962636	4.30152463	4.29819421	4.29136726	4.28358157	4.27438789	4.27264794	4.26566924	4.26259005	4.25681359	4.24884478	4.23401243	4.23027619	4.22728783	4.21805851	4.21165577	4.20817307	4.20090202	4.19796796	4.18873043	4.18326862	4.18067811	4.17976226	4.17332860	4.16877520	4.16698257	4.15570970	4.14939576	4.14714083	4.13796966	4.13270212	4.12538120	4.12331473	4.11375773	4.11143509	4.10412984	4.10304970	4.09610637	4.08944930	4.08683076	4.08536922	4.08035150	4.07178917	4.06621560	4.06153180	4.05039287	4.04609361	4.04291265	4.04242691	4.03746483	4.03126290	4.02318095	4.01725980	4.01211515	4.00873831	4.00369970	3.99683974	3.99546239	3.98368059	3.98121344	3.97157487	3.96537319	3.96233609	3.95713338	3.95200343	3.94926700	3.94140062	3.93485507	3.93334087	3.93100868	3.92301201	3.91681098	3.91390623	3.90967223	3.90491483	3.90226308	3.89641750	3.89343260	3.88725037	3.88268248	3.87583851	3.87309003	3.86922764	3.86417174	3.86341236	3.85419920	3.84849793	3.84453096	3.83710056	3.83582757	3.83174690	3.82084008	3.81796861	3.81343382	3.81003940	3.80095321	3.79499513	3.79427684	3.78787449	3.78474043	3.78431272	3.77908985	3.77073286	3.76946188	3.76518389	3.75662118	3.75503352	3.75185235	3.74950370	3.74261009	3.73959407	3.73132000	3.72572705	3.72361889	3.71796134	3.71469852	3.71274779	3.70395980	3.70068236	3.69619206	3.69318872	3.68670545	3.68657268	3.67627698	3.67382297	3.66812035	3.66606172	3.66031234	3.65885134	3.65139786	3.64223597	3.64132713	3.63802149	3.63628577	3.63225399	3.62586118	3.62150103	3.61561155	3.61397845	3.60866083	3.60631328	3.59924821	3.59733110	3.59179351	3.59005447	3.58613180	3.58210842	3.57936847	3.57020200	3.56427650	3.56368185	3.55885680	3.55513243	3.54910667	3.54370876	3.53972817	3.53300320	3.53124197	3.52342199	3.52082477	3.51775175	3.51169702	3.51093955	3.50431598	3.50122723	3.49687543	3.48704965	3.48578556	3.48192453	3.47573198	3.47457098	3.46642249	3.46126126	3.45834247	3.45714949	3.45331029	3.44624540	3.44510639	3.44088514	3.43804829	3.43387943	3.42891800	3.42452444	3.41976580	3.41606265	3.41124194	3.40801534	3.40594584	3.40179679	3.39970420	3.39230205	3.38802718	3.38415684	3.38247710	3.38021379	3.37550486	3.37466301	3.36535503	3.35823351	3.35542152	3.35437515	3.34895042	3.34626561	3.34346751	3.33899560	3.33668768	3.33073343	3.32666982	3.31959086	3.31584854	3.31401773	3.30999924	3.30693987	3.30321812	3.30071873	3.29322092	3.28854467	3.28592950	3.28087700	3.27853910	3.27297465	3.27233980	3.26846331	3.26430305	3.26004950	3.25844809	3.25313603	3.25041021	3.24653824	3.23946894	3.23685620	3.23493698	3.23440058	3.22884922	3.22677344	3.22046887	3.21661659	3.21273334	3.20438234	3.20381095	3.19967959	3.19652844	3.19261382	3.18933520	3.18447415	3.18178781	3.17978348	3.17739967	3.17112625	3.16899219	3.16648373	3.16410451	3.15583146	3.15240634	3.14596057	3.14442030	3.13840135	3.13597739	3.13414286	3.13089912	3.12786521	3.12384725	3.11754927	3.11684479	3.11164612	3.10800869	3.10375557	3.09988992	3.09855218	3.09424848	3.09067537	3.08400267	3.08132710	3.07997738	3.07796854	3.07434872	3.07287233	3.06889288	3.06611024	3.06115236	3.06037327	3.05533859	3.04996149	3.04678871	3.04323249	3.04117886	3.03616533	3.03487754	3.03227646	3.02775587	3.02513851	3.02266839	3.01901842	3.01587176	3.01126538	3.00938966	3.00638149	3.00407364	2.99992137	2.99729944	2.99412348	2.99050908	2.98518544	2.98112727	2.97949677	2.97541406	2.96938597	2.96798141	2.95899135	2.95842590	2.95511129	2.95072344	2.94871131	2.94566062	2.94292872	2.93935911	2.93916356	2.93628070	2.93203768	2.92917850	2.92364925	2.91825626	2.91635688	2.91104205	2.90973817	2.90690550	2.90565391	2.90400584	2.90161064	2.90050273	2.89876206	2.89193987	2.88689709	2.88415775	2.88265732	2.87850394	2.87552548	2.87409894	2.86845464	2.86658049	2.86440078	2.86308560	2.85838972	2.85712715	2.85121553	2.84808069	2.84554450	2.84369123	2.83785395	2.83471014	2.83301975	2.82923879	2.82708950	2.82572855	2.82202440	2.81747831	2.81537074	2.81060789	2.80881213	2.80500837	2.80365325	2.80284828	2.79671281	2.79310241	2.78884974	2.78327200	2.78165732	2.77877753	2.77747268	2.77700559	2.77459936	2.77244530	2.76800507	2.76718322	2.76383041	2.75721019	2.75616191	2.75518538	2.74816973	2.74636591	2.74312912	2.74062317	2.73640740	2.73335463	2.73249847	2.73168337	2.73037096	2.72826254	2.71962138	2.71623544	2.71534806	2.71196804	2.70978497	2.70215210	2.70091934	2.69693558	2.69504352	2.69237834	2.69162680	2.68717452	2.68621666	2.68520677	2.67986307	2.67596788	2.67534779	2.67222449	2.66777225	2.66572117	2.66267335	2.66001525	2.65516304	2.65239005	2.64846216	2.64797729	2.64539027	2.64107178	2.63665622	2.63563870	2.63202766	2.63101902	2.62540071	2.62483978	2.62214744	2.61814068	2.61626899	2.61446777	2.60872009	2.60587948	2.60379206	2.60097566	2.59956317	2.59852348	2.59712847	2.59399618	2.59168904	2.58908993	2.58573537	2.58313308	2.58100255	2.57693684	2.57497835	2.57258452	2.57047322	2.56911234	2.56489765	2.56333211	2.56072246	2.55771401	2.55546823	2.55270397	2.55141491	2.54808629	2.54386728	2.54236572	2.53952937	2.53701995	2.53395700	2.53033391	2.52948245	2.52601703	2.52202425	2.52036513	2.51704056	2.51645298	2.51271647	2.50953998	2.50770303	2.50675269	2.50364840	2.50073660	2.49822922	2.49350646	2.49174622	2.48829484	2.48542114	2.48449115	2.48331083	2.47828032	2.47493748	2.47344560	2.47142681	2.46699486	2.46402949	2.46201897	2.46130613	2.46005573	2.45614849	2.45266952	2.45187908	2.44863274	2.44597218	2.44369524	2.43863338	2.43516931	2.43438482	2.43326961	2.43031583	2.42687811	2.42395085	2.41948743	2.41634975	2.41579892	2.41192138	2.41091814	2.40983692	2.40776891	2.40507336	2.40382010	2.39855985	2.39551137	2.39423210	2.39221953	2.39017589	2.38963537	2.38680682	2.38412709	2.38131975	2.38096217	2.37864646	2.37321231	2.37274448	2.36848141	2.36500979	2.36430398	2.36180740	2.35983965	2.35657734	2.35457779	2.35203554	2.35029423	2.34963144	2.34917017	2.34550119	2.34250569	2.33683085	2.33527478	2.33287195	2.33187845	2.33056221	2.32951856	2.32698106	2.32450692	2.32034824	2.31909250	2.31828584	2.31653758	2.31477477	2.30863336	2.30714816	2.30312536	2.30126369	2.30014619	2.29787878	2.29633404	2.29324878	2.29116835	2.28901083	2.28489497	2.28299512	2.28152418	2.28008650	2.27582498	2.27391970	2.27100234	2.26776242	2.26702078	2.26545429	2.26350172	2.26125926	2.25942444	2.25804871	2.25673024	2.25500857	2.25260999	2.24876359	2.24697728	2.24548515	2.24394079	2.24139702	2.24018509	2.23735836	2.23447871	2.22975862	2.22940486	2.22593737	2.22518400	2.22199330	2.21942903	2.21546546	2.21447234	2.21364669	2.20940985	2.20789452	2.20648753	2.20533016	2.20379021	2.20025103	2.19904474	2.19613521	2.19501668	2.19374035	2.19134681	2.18997038	2.18734568	2.18464160	2.18426581	2.18206548	2.18022595	2.17509197	2.17328631	2.17162588	2.16865964	2.16835429	2.16612377	2.16359935	2.16248382	2.15977285	2.15847597	2.15766873	2.15304716	2.15220692	2.15135293	2.15055002	2.14877342	2.14629393	2.14138866	2.13872229	2.13476660	2.13317584	2.13094143	2.12845228	2.12796616	2.12577496	2.12452246	2.12069688	2.11884310	2.11764986	2.11523024	2.11478551	2.11035461	2.10848783	2.10702529	2.10650664	2.10333664	2.09881268	2.09813023	2.09514370	2.09349059	2.09248494	2.08916475	2.08834971	2.08480445	2.08438084	2.08199469	2.07918047	2.07844286	2.07480791	2.07321952	2.07140145	2.06976430	2.06741331	2.06560359	2.06239307	2.06141303	2.06013400	2.05823754	2.05556642	2.05359270	2.05064553	2.04953105	2.04612182	2.04583552	2.04454448	2.04327147	2.03964507	2.03840875	2.03676169	2.03227766	2.03118824	2.02894518	2.02635139	2.02505269	2.02324079	2.02204293	2.01821111	2.01605546	2.01471962	2.01278956	2.01102378	2.00900464	2.00758954	2.00566979	2.00496287	2.00342979	2.00191535	1.99942791	1.99872434	1.99525802	1.99430497	1.99093311	1.98883597	1.98741008	1.98429691	1.98123856	1.97851726	1.97681162	1.97651975	1.97558983	1.97396173	1.97055202	1.96994393	1.96715147	1.96554951	1.96368641	1.96170158	1.96027678	1.95793085	1.95545642	1.95464255	1.95280721	1.94996402	1.94856962	1.94714279	1.94437273	1.94319337	1.94137574	1.93847651	1.93666899	1.93397973	1.93134447	1.93066064	1.92944317	1.92711415	1.92637215	1.92490163	1.92335254	1.92041712	1.91715765	1.91651237	1.91495097	1.91372230	1.91230676	1.90879806	1.90674458	1.90427107	1.90258576	1.90147153	1.90013871	1.89849260	1.89639207	1.89529330	1.89297079	1.89101804	1.89070134	1.88866361	1.88794073	1.88614469	1.88424910	1.88206459	1.88155528	1.88008324	1.87736468	1.87706169	1.87336637	1.87024494	1.86872988	1.86620458	1.86554364	1.86423385	1.86244426	1.86005128	1.85891909	1.85653332	1.85538397	1.85360404	1.85249527	1.85051167	1.84915966	1.84784313	1.84614332	1.84585367	1.84353585	1.84012879	1.83939760	1.83720636	1.83534219	1.83334043	1.83175647	1.83050100	1.82729070	1.82541115	1.82481909	1.82003147	1.81947973	1.81826734	1.81705689	1.81582557	1.81430694	1.81234457	1.81183839	1.80926445	1.80773292	1.80684404	1.80503040	1.80294546	1.80226308	1.80010246	1.79892384	1.79776887	1.79516192	1.79237219	1.78952192	1.78937402	1.78868212	1.78652501	1.78359176	1.78298518	1.78179219	1.78045132	1.77905368	1.77567405	1.77521253	1.77477073	1.77297998	1.77119706	1.76943734	1.76829969	1.76477959	1.76421569	1.76347375	1.75978931	1.75786898	1.75491477	1.75467467	1.75316254	1.75196726	1.75024940	1.74949407	1.74826330	1.74616008	1.74510418	1.74256200	1.74086420	1.74065308	1.73863898	1.73703399	1.73583706	1.73362518	1.73035262	1.72947403	1.72762690	1.72707604	1.72590071	1.72398427	1.72308938	1.72032218	1.71930588	1.71772986	1.71628595	1.71349866	1.71175381	1.71116383	1.71061172	1.70946966	1.70874256	1.70777314	1.70484421	1.70266618	1.70101540	1.69863369	1.69838876	1.69629323	1.69439752	1.69333952	1.69125871	1.69078900	1.68912782	1.68587301	1.68572631	1.68481748	1.68389502	1.68232023	1.68187613	1.67844423	1.67795080	1.67613499	1.67517850	1.67333336	1.67246035	1.67079106	1.66923292	1.66739591	1.66592002	1.66313487	1.66175068	1.66125081	1.65880977	1.65734571	1.65548657	1.65355898	1.65185170	1.65136244	1.65000452	1.64892178	1.64766798	1.64724944	1.64517863	1.64328515	1.64091390	1.63825939	1.63703054	1.63671879	1.63583027	1.63388133	1.63187599	1.62941323	1.62920803	1.62822169	1.62648852	1.62546048	1.62290124	1.62160971	1.62150251	1.61829726	1.61659673	1.61578266	1.61431796	1.61290631	1.61132417	1.61045196	1.60920105	1.60718508	1.60674371	1.60376973	1.60097945	1.60023365	1.59748848	1.59648021	1.59639881	1.59561078	1.59298485	1.59091128	1.58934312	1.58883872	1.58654318	1.58612468	1.58471293	1.58303618	1.58047081	1.57913693	1.57810532	1.57783811	1.57669022	1.57619961	1.57553221	1.57392258	1.57258046	1.57221246	1.56799112	1.56705369	1.56558877	1.56382968	1.56214342	1.56198772	1.56107924	1.55855123	1.55774580	1.55649894	1.55513783	1.55306988	1.55153665	1.54963692	1.54890723	1.54689896	1.54565930	1.54388928	1.54193399	1.54084835	1.54030081	1.53864795	1.53646880	1.53513359	1.53460932	1.53430645	1.53382471	1.53033077	1.52960610	1.52861028	1.52702991	1.52621925	1.52527983	1.52477825	1.52332313	1.52160186	1.51884791	1.51739928	1.51676314	1.51560810	1.51341247	1.51234464	1.51081900	1.50961856	1.50851594	1.50543170	1.50443930	1.50332474	1.50263632	1.50061888	1.49985573	1.49813525	1.49681976	1.49597274	1.49423508	1.49279136	1.49029653	1.48954934	1.48902594	1.48757898	1.48661321	1.48578849	1.48492433	1.48318786	1.48259858	1.48061825	1.47929531	1.47775595	1.47726520	1.47477714	1.47391296	1.47258271	1.47185106	1.46847887	1.46744321	1.46675531	1.46604232	1.46451979	1.46309524	1.46219616	1.46087044	1.45927372	1.45703723	1.45678008	1.45591195	1.45406166	1.45128322	1.45078862	1.45014182	1.44755013	1.44640888	1.44625431	1.44350932	1.44333330	1.44176637	1.44019196	1.43964392	1.43894744	1.43790910	1.43692555	1.43517544	1.43412424	1.43297541	1.43221454	1.43045888	1.42832350	1.42703503	1.42655900	1.42584020	1.42508219	1.42292475	1.42181704	1.42070257	1.41921502	1.41824776	1.41472805	1.41445162	1.41358105	1.41214058	1.41122922	1.41021547	1.40898534	1.40865803	1.40658809	1.40591206	1.40516478	1.40412496	1.40085185	1.40006391	1.39879453	1.39802956	1.39753653	1.39551650	1.39406682	1.39375458	1.39304222	1.39208406	1.39000004	1.38915703	1.38795365	1.38606352	1.38454186	1.38413306	1.38300457	1.38189166	1.37964964	1.37828920	1.37703159	1.37636449	1.37436279	1.37408631	1.37326810	1.37181271	1.37014456	1.36904511	1.36625194	1.36598209	1.36515460	1.36371214	1.36138142	1.35993373	1.35847229	1.35732918	1.35640385	1.35526205	1.35395357	1.35269854	1.35184457	1.35048168	1.34890175	1.34806398	1.34701271	1.34629432	1.34333331	1.34265187	1.34194796	1.34097735	1.34051049	1.33947203	1.33897800	1.33681414	1.33589151	1.33519552	1.33389569	1.33323071	1.33247542	1.33036828	1.32946155	1.32929315	1.32799318	1.32703307	1.32567890	1.32335940	1.32231171	1.32103345	1.32006010	1.31857787	1.31682561	1.31649389	1.31537929	1.31386120	1.31336973	1.31278281	1.31170347	1.31097281	1.30869065	1.30760508	1.30720538	1.30468686	1.30347787	1.30278419	1.30250006	1.30068579	1.30020655	1.29769479	1.29705172	1.29645445	1.29506349	1.29342446	1.29239741	1.29059834	1.29008692	1.28947144	1.28860198	1.28641448	1.28518471	1.28465572	1.28277101	1.28259076	1.28088537	1.27985497	1.27946426	1.27831759	1.27738855	1.27593982	1.27499845	1.27384349	1.27329180	1.27235591	1.27080289	1.26921037	1.26851289	1.26697006	1.26682944	1.26585558	1.26370137	1.26166383	1.26089043	1.25936926	1.25824733	1.25715317	1.25573909	1.25527848	1.25469000	1.25213853	1.25131062	1.25088904	1.24985018	1.24847080	1.24777375	1.24608882	1.24585839	1.24517460	1.24356273	1.24234386	1.24062041	1.23986745	1.23912048	1.23845004	1.23727229	1.23702484	1.23561742	1.23472825	1.23408794	1.23236330	1.23163557	1.23037503	1.22873592	1.22795297	1.22657862	1.22584655	1.22404925	1.22344136	1.22254326	1.22154590	1.22078195	1.21982720	1.21822308	1.21753648	1.21474423	1.21430855	1.21288408	1.21251864	1.21157578	1.21034992	1.20922782	1.20828290	1.20760315	1.20625706	1.20408915	1.20360622	1.20257036	1.20194212	1.20026166	1.19895240	1.19833271	1.19666411	1.19602711	1.19584653	1.19428993	1.19304223	1.19273241	1.19208421	1.19149365	1.18906479	1.18829336	1.18655265	1.18613230	1.18461051	1.18413672	1.18344075	1.18249989	1.18128764	1.18047826	1.17999543	1.17868587	1.17723386	1.17571117	1.17442322	1.17321556	1.17292076	1.17163515	1.17048408	1.16944253	1.16788740	1.16742794	1.16603724	1.16517138	1.16496455	1.16388525	1.16319837	1.16212567	1.16034358	1.15936866	1.15870716	1.15758637	1.15700375	1.15600729	1.15449381	1.15332330	1.15149483	1.15084720	1.15006782	1.14883459	1.14823303	1.14731431	1.14525312	1.14439860	1.14342770	1.14238862	1.14175431	1.14093353	1.13934826	1.13919495	1.13775764	1.13691791	1.13662402	1.13506016	1.13437532	1.13276099	1.13247500	1.13169271	1.13017984	1.12882328	1.12866560	1.12745873	1.12608586	1.12514300	1.12442489	1.12363351	1.12296177	1.12231350	1.12077242	1.12011234	1.11860844	1.11695190	1.11676117	1.11550030	1.11456820	1.11401060	1.11278314	1.11190903	1.11090014	1.10965306	1.10875408	1.10816349	1.10712230	1.10627748	1.10610193	1.10520235	1.10444758	1.10380204	1.10265402	1.10134710	1.09970067	1.09776782	1.09696634	1.09588951	1.09490474	1.09378656	1.09312319	1.09245373	1.09167660	1.09074119	1.08966674	1.08799381	1.08678387	1.08637569	1.08496707	1.08427274	1.08391454	1.08361370	1.08297275	1.08089199	1.07972069	1.07943074	1.07849401	1.07779631	1.07688356	1.07619784	1.07565402	1.07410733	1.07296769	1.07245987	1.07078606	1.07059326	1.06875992	1.06815557	1.06763157	1.06694173	1.06594268	1.06431574	1.06327924	1.06243045	1.06174104	1.06105102	1.05913843	1.05839966	1.05782277	1.05728502	1.05713425	1.05635986	1.05468194	1.05353738	1.05214871	1.05107199	1.05083777	1.05014405	1.04908643	1.04862946	1.04595723	1.04555371	1.04504967	1.04481277	1.04327434	1.04214566	1.04201004	1.04098131	1.04033786	1.03969350	1.03877790	1.03745588	1.03684565	1.03596152	1.03460585	1.03424953	1.03276478	1.03245899	1.03199456	1.03147807	1.02949899	1.02913704	1.02862642	1.02767819	1.02621716	1.02516640	1.02469528	1.02363179	1.02285438	1.02169970	1.02044958	1.01969541	1.01845508	1.01785083	1.01635281	1.01522711	1.01478454	1.01405984	1.01361807	1.01234664	1.01129685	1.01018303	1.00945803	1.00799280	1.00754904	1.00637210	1.00570665	1.00402221	1.00375106	1.00223867	1.00057968	1.00023947	0.99963893	0.99918329	0.99890388	0.99742063	0.99688726	0.99593557	0.99544966	0.99328412	0.99278747	0.99198159	0.99175921	0.99097928	0.98952261	0.98897470	0.98824851	0.98799330	0.98632905	0.98561483	0.98510351	0.98411225	0.98351878	0.98273598	0.98228106	0.98104451	0.98077356	0.97910683	0.97882033	0.97757295	0.97663800	0.97623302	0.97496613	0.97386844	0.97381106	0.97329928	0.97230185	0.97072355	0.97037125	0.97010531	0.96870126	0.96789000	0.96682991	0.96628082	0.96542739	0.96430767	0.96388971	0.96336008	0.96154139	0.96107144	0.96003460	0.95944425	0.95895429	0.95758707	0.95732730	0.95643164	0.95543131	0.95501374	0.95447645	0.95316684	0.95230173	0.95159927	0.95097755	0.95042410	0.94939243	0.94871328	0.94776665	0.94655190	0.94615974	0.94424582	0.94349769	0.94330319	0.94272624	0.94204416	0.94166039	0.94038131	0.93996977	0.93825976	0.93770390	0.93671986	0.93589950	0.93570630	0.93494440	0.93438354	0.93346826	0.93288367	0.93172155	0.93086288	0.93033842	0.92889941	0.92828397	0.92807464	0.92643414	0.92588524	0.92505875	0.92405129	0.92273003	0.92213054	0.92079298	0.92001387	0.91951976	0.91910274	0.91811681	0.91725125	0.91652290	0.91584630	0.91447550	0.91335608	0.91312842	0.91265276	0.91199351	0.91076544	0.91050142	0.90968841	0.90871146	0.90838300	0.90696962	0.90594506	0.90507954	0.90459210	0.90384002	0.90342148	0.90229547	0.90221266	0.90031827	0.89959168	0.89901138	0.89795069	0.89737533	0.89682704	0.89669592	0.89492982	0.89442260	0.89333061	0.89275179	0.89238239	0.89165838	0.89067837	0.88903126	0.88855403	0.88792049	0.88746536	0.88721536	0.88593856	0.88466017	0.88430330	0.88236483	0.88224157	0.88145060	0.88071409	0.88062514	0.88009211	0.87830923	0.87766301	0.87679518	0.87590849	0.87539072	0.87514592	0.87420713	0.87353596	0.87295380	0.87261798	0.87137877	0.87131097	0.87052349	0.86892137	0.86806480	0.86748306	0.86708519	0.86512367	0.86482554	0.86433018	0.86421565	0.86301252	0.86245410	0.86194205	0.86115053	0.86007031	0.85789566	0.85776140	0.85762027	0.85712340	0.85572506	0.85532461	0.85447338	0.85386017	0.85321404	0.85204428	0.85194026	0.85101264	0.84964604	0.84930999	0.84870928	0.84680833	0.84611689	0.84548023	0.84536063	0.84513469	0.84477493	0.84341141	0.84303603	0.84202880	0.84179668	0.84056967	0.84016511	0.83954675	0.83858893	0.83789455	0.83705568	0.83631951	0.83622455	0.83428180	0.83398195	0.83313920	0.83273470	0.83158129	0.83065882	0.83040741	0.83011526	0.82948203	0.82905991	0.82795056	0.82705073	0.82650714	0.82606726	0.82481459	0.82425518	0.82382663	0.82246117	0.82236656	0.82054328	0.82045209	0.81996247	0.81843843	0.81815054	0.81702814	0.81634783	0.81588301	0.81524168	0.81451285	0.81311229	0.81275056	0.81196559	0.81109012	0.81074629	0.80982158	0.80887177	0.80829235	0.80763005	0.80728462	0.80669909	0.80602308	0.80507189	0.80360123	0.80296739	0.80192030	0.80163658	0.80066147	0.79961350	0.79959380	0.79825157	0.79817119	0.79811168	0.79633987	0.79602751	0.79592605	0.79455522	0.79408768	0.79367016	0.79259553	0.79242833	0.79199577	0.79059155	0.79000390	0.78960173	0.78926101	0.78769475	0.78743947	0.78678364	0.78598784	0.78508501	0.78453052	0.78405257	0.78372120	0.78238060	0.78180348	0.78111004	0.78023714	0.77988515	0.77948008	0.77869916	0.77745222	0.77722744	0.77631811	0.77589602	0.77513759	0.77454115	0.77388954	0.77380359	0.77324026	0.77117608	0.77016549	0.76944887	0.76903768	0.76821280	0.76818668	0.76749896	0.76679448	0.76612348	0.76559560	0.76468338	0.76397106	0.76323883	0.76252398	0.76155741	0.76095832	0.76030668	0.75950369	0.75910275	0.75876594	0.75806580	0.75756132	0.75688485	0.75650011	0.75579957	0.75538899	0.75448520	0.75355263	0.75178339	0.75144290	0.75101745	0.74945200	0.74927735	0.74823374	0.74784697	0.74719977	0.74716572	0.74658222	0.74601678	0.74460778	0.74391658	0.74341879	0.74291865	0.74215036	0.74144250	0.74103118	0.74000526	0.73909624	0.73897639	0.73874790	0.73780204	0.73741817	0.73695764	0.73646284	0.73559343	0.73435145	0.73378318	0.73301179	0.73235904	0.73221543	0.73104799	0.73059829	0.72959999	0.72914330	0.72808077	0.72722429	0.72704516	0.72610482	0.72513394	0.72445272	0.72370887	0.72353548	0.72261708	0.72202996	0.72092215	0.72013867	0.71977352	0.71956310	0.71854078	0.71740192	0.71681601	0.71678109	0.71572978	0.71533303	0.71418175	0.71400224	0.71344966	0.71267841	0.71143260	0.71127607	0.71054481	0.71019951	0.70988295	0.70867991	0.70795918	0.70751467	0.70681353	0.70639898	0.70560954	0.70495904	0.70443995	0.70388744	0.70354651	0.70239875	0.70219725	0.70149685	0.70055216	0.70026868	0.69986126	0.69948861	0.69756149	0.69737619	0.69720975	0.69595946	0.69569833	0.69547026	0.69462344	0.69426681	0.69373578	0.69245428	0.69197599	0.69179437	0.69149298	0.69097265	0.68950729	0.68917282	0.68848573	0.68790644	0.68618764	0.68586212	0.68562470	0.68461472	0.68419453	0.68408540	0.68294624	0.68268993	0.68188947	0.68108750	0.68078831	0.67963690	0.67931203	0.67873064	0.67812300	0.67740062	0.67689907	0.67679837	0.67648615	0.67473929	0.67377381	0.67277788	0.67249994	0.67231744	0.67167551	0.67140660	0.67050536	0.66976149	0.66941371	0.66921520	0.66774235	0.66759557	0.66678245	0.66615950	0.66589012	0.66486964	0.66473831	0.66403410	0.66333432	0.66261614	0.66209286	0.66128780	0.66057785	0.66017834	0.65998916	0.65922489	0.65880059	0.65817387	0.65788164	0.65692833	0.65629130	0.65545894	0.65514476	0.65479563	0.65461874	0.65404075	0.65273435	0.65264365	0.65198316	0.65130728	0.65018846	0.65002397	0.64909017	0.64846106	0.64814130	0.64712474	0.64640453	0.64614425	0.64571197	0.64554207	0.64460999	0.64443131	0.64431527	0.64315140	0.64264950	0.64226726	0.64157872	0.64127786	0.64036885	0.63955623	0.63872503	0.63808310	0.63738940	0.63652758	0.63600931	0.63531628	0.63494291	0.63443274	0.63365375	0.63349326	0.63276632	0.63224035	0.63209984	0.63124045	0.63000970	0.62905825	0.62857654	0.62810262	0.62729681	0.62685913	0.62668015	0.62614844	0.62590962	0.62551857	0.62468089	0.62422562	0.62323013	0.62273145	0.62212636	0.62176057	0.62042173	0.62017857	0.61988633	0.61849814	0.61840732	0.61733525	0.61646153	0.61631846	0.61543712	0.61512604	0.61460149	0.61417962	0.61369567	0.61314257	0.61264406	0.61231136	0.61136217	0.61088477	0.60993700	0.60969780	0.60884766	0.60838053	0.60791359	0.60719392	0.60681447	0.60657578	0.60592052	0.60522205	0.60494094	0.60412506	0.60393879	0.60342414	0.60290847	0.60175737	0.60095347	0.59972408	0.59943906	0.59903956	0.59844816	0.59788010	0.59784498	0.59742465	0.59657102	0.59638020	0.59602591	0.59421663	0.59403483	0.59362845	0.59262397	0.59241986	0.59161840	0.59133672	0.59105030	0.59043505	0.58949419	0.58916023	0.58869083	0.58851974	0.58742206	0.58633299	0.58624128	0.58558522	0.58462582	0.58452852	0.58405576	0.58292001	0.58287262	0.58160380	0.58106102	0.58074847	0.58025732	0.57997448	0.57968326	0.57921097	0.57861156	0.57795324	0.57769238	0.57729879	0.57626215	0.57625828	0.57547755	0.57494440	0.57456348	0.57378277	0.57312281	0.57286223	0.57253480	0.57150192	0.57091652	0.57053385	0.57004093	0.56979467	0.56900894	0.56867001	0.56784316	0.56726609	0.56674262	0.56596530	0.56517096	0.56497494	0.56463258	0.56392521	0.56367450	0.56297051	0.56256301	0.56223413	0.56166205	0.56066125	0.55998581	0.55948977	0.55863969	0.55854285	0.55792935	0.55707843	0.55683211	0.55603083	0.55551087	0.55510353	0.55432372	0.55351632	0.55329400	0.55299038	0.55279157	0.55182998	0.55146332	0.55131429	0.55045701	0.54937143	0.54889011	0.54820144	0.54775942	0.54716701	0.54705112	0.54645357	0.54564403	0.54514104	0.54500749	0.54489699	0.54372299	0.54345697	0.54335885	0.54282922	0.54227111	0.54165618	0.54101494	0.54067590	0.54056569	0.53993838	0.53925590	0.53809568	0.53792520	0.53769473	0.53688863	0.53647333	0.53606690	0.53574502	0.53496742	0.53431212	0.53378882	0.53308313	0.53262516	0.53226583	0.53165021	0.53091023	0.53056662	0.53014486	0.52977283	0.52871466	0.52836771	0.52806376	0.52766900	0.52679912	0.52651108	0.52633358	0.52605774	0.52528721	0.52468031	0.52432597	0.52397382	0.52279043	0.52250723	0.52208117	0.52118468	0.52074206	0.52021829	0.51981550	0.51879067	0.51832211	0.51788966	0.51740651	0.51651201	0.51594934	0.51578841	0.51533307	0.51490051	0.51463572	0.51423177	0.51344835	0.51310785	0.51252906	0.51216341	0.51191415	0.51126006	0.51085683	0.51072612	0.51024029	0.50970213	0.50882847	0.50821122	0.50784403	0.50706619	0.50633959	0.50623443	0.50543941	0.50527614	0.50463564	0.50335281	0.50248660	0.50209057	0.50139237	0.50117777	0.50083723	0.50038570	0.49996805	0.49960466	0.49930301	0.49923567	0.49791768	0.49742315	0.49693685	0.49606693	0.49520037	0.49484300	0.49447287	0.49403435	0.49348896	0.49319127	0.49266043	0.49252012	0.49200623	0.49172944	0.49080740	0.49037569	0.49015545	0.48953818	0.48895740	0.48867239	0.48827916	0.48748931	0.48730150	0.48642327	0.48568538	0.48514698	0.48484413	0.48437002	0.48365806	0.48314951	0.48263638	0.48200221	0.48183286	0.48155586	0.48117029	0.48085302	0.48042358	0.48005710	0.47934723	0.47885146	0.47860577	0.47752364	0.47734488	0.47690753	0.47650157	0.47597134	0.47536400	0.47477216	0.47402587	0.47363857	0.47301997	0.47261482	0.47211098	0.47199974	0.47129281	0.47077612	0.46998589	0.46941657	0.46886397	0.46866947	0.46832587	0.46818604	0.46757102	0.46729407	0.46631329	0.46623547	0.46577432	0.46506558	0.46498379	0.46432457	0.46373213	0.46321575	0.46273406	0.46198769	0.46148930	0.46127555	0.46078858	0.46041755	0.45958460	0.45885719	0.45881219	0.45834626	0.45777686	0.45740948	0.45662491	0.45633308	0.45620151	0.45566735	0.45503388	0.45498604	0.45384994	0.45273479	0.45244933	0.45187129	0.45161476	0.45061573	0.45046368	0.44996886	0.44951021	0.44935161	0.44853846	0.44783420	0.44735701	0.44679016	0.44666257	0.44581335	0.44550379	0.44501784	0.44472010	0.44443848	0.44417847	0.44342765	0.44318679	0.44297834	0.44259969	0.44206459	0.44133135	0.44120125	0.44062184	0.44036884	0.43979453	0.43946241	0.43851249	0.43812162	0.43777852	0.43756710	0.43654786	0.43614266	0.43602854	0.43530745	0.43489174	0.43422406	0.43383246	0.43335123	0.43302356	0.43260370	0.43164280	0.43158189	0.43132798	0.43049293	0.43041102	0.42984046	0.42953037	0.42869175	0.42827365	0.42780748	0.42703860	0.42674717	0.42642269	0.42565816	0.42502109	0.42482572	0.42463180	0.42404984	0.42387405	0.42334478	0.42314523	0.42262021	0.42252936	0.42179068	0.42150190	0.42092469	0.42053982	0.42019220	0.41980310	0.41892921	0.41778916	0.41723225	0.41703956	0.41686480	0.41593441	0.41575338	0.41545477	0.41494919	0.41446192	0.41423516	0.41398608	0.41345732	0.41295142	0.41242456	0.41195976	0.41151921	0.41139197	0.41076662	0.41046331	0.41018668	0.40988692	0.40941240	0.40926223	0.40803324	0.40778785	0.40715331	0.40703417	0.40669874	0.40646989	0.40573032	0.40526483	0.40488401	0.40454729	0.40427285	0.40366947	0.40297031	0.40251948	0.40235948	0.40190562	0.40141690	0.40079204	0.40048233	0.39988490	0.39927398	0.39876715	0.39809691	0.39770193	0.39724369	0.39712725	0.39640031	0.39616443	0.39605018	0.39567725	0.39520877	0.39457249	0.39432804	0.39363474	0.39314208	0.39291769	0.39238115	0.39199819	0.39163346	0.39152221	0.39093631	0.39043480	0.39008272	0.38968772	0.38929243	0.38879647	0.38837114	0.38760076	0.38726139	0.38669466	0.38668059	0.38616533	0.38565488	0.38522046	0.38466173	0.38399463	0.38376760	0.38320830	0.38305352	0.38251142	0.38228987	0.38169993	0.38126468	0.38113024	0.38033229	0.38024375	0.38003581	0.37928870	0.37892277	0.37847862	0.37788274	0.37786753	0.37681554	0.37632980	0.37599663	0.37532140	0.37500244	0.37473221	0.37447090	0.37420409	0.37341391	0.37308631	0.37276416	0.37258321	0.37177223	0.37142462	0.37062795	0.37053061	0.36985146	0.36919082	0.36903344	0.36863241	0.36835597	0.36771206	0.36754394	0.36655589	0.36643169	0.36618156	0.36593051	0.36565642	0.36476342	0.36444970	0.36403183	0.36352305	0.36326041	0.36310883	0.36242499	0.36213525	0.36161514	0.36157758	0.36062596	0.36010090	0.35928689	0.35897369	0.35868777	0.35833935	0.35804387	0.35752307	0.35704438	0.35654154	0.35626781	0.35579234	0.35560858	0.35484693	0.35452420	0.35422461	0.35389637	0.35364737	0.35320486	0.35234089	0.35208950	0.35194042	0.35152180	0.35112484	0.35062707	0.35050488	0.34994827	0.34922676	0.34904326	0.34894727	0.34852461	0.34803737	0.34762362	0.34739057	0.34690626	0.34646786	0.34587462	0.34577677	0.34455630	0.34442483	0.34409033	0.34358555	0.34302421	0.34261958	0.34238946	0.34161081	0.34089627	0.34070638	0.34041966	0.34001556	0.33965952	0.33935117	0.33907837	0.33886728	0.33835941	0.33793150	0.33720888	0.33668336	0.33635330	0.33613040	0.33586518	0.33500346	0.33440761	0.33418268	0.33387470	0.33340602	0.33326670	0.33274891	0.33258463	0.33193999	0.33150102	0.33143761	0.33078667	0.33066198	0.33026466	0.32942982	0.32922135	0.32866292	0.32818566	0.32802757	0.32770927	0.32746451	0.32680236	0.32582071	0.32554835	0.32495259	0.32459487	0.32440238	0.32412241	0.32367696	0.32338862	0.32314287	0.32286728	0.32251309	0.32186650	0.32133030	0.32061056	0.32036711	0.32029744	0.32009339	0.31961303	0.31868095	0.31855398	0.31810282	0.31721017	0.31698218	0.31676863	0.31657484	0.31603371	0.31585815	0.31553886	0.31513953	0.31458434	0.31370288	0.31332998	0.31321845	0.31307465	0.31235216	0.31197565	0.31166065	0.31107642	0.31076323	0.31010404	0.30983215	0.30947446	0.30900638	0.30888873	0.30853440	0.30826064	0.30807194	0.30717959	0.30690612	0.30658099	0.30634301	0.30570978	0.30569303	0.30531742	0.30469798	0.30417313	0.30389394	0.30359981	0.30309278	0.30268719	0.30236050	0.30222283	0.30169482	0.30127532	0.30095126	0.30071321	0.30038967	0.29998916	0.29931681	0.29903147	0.29845845	0.29831852	0.29754342	0.29709964	0.29685113	0.29642674	0.29601463	0.29562647	0.29559688	0.29483259	0.29437604	0.29383012	0.29336543	0.29314532	0.29302635	0.29256871	0.29242088	0.29178995	0.29099366	0.29066482	0.29030656	0.28986481	0.28969315	0.28915560	0.28899946	0.28890423	0.28854227	0.28747424	0.28738742	0.28673129	0.28671662	0.28658811	0.28637754	0.28610602	0.28564351	0.28499751	0.28448382	0.28435468	0.28378074	0.28339626	0.28262669	0.28243477	0.28186619	0.28148562	0.28130308	0.28099836	0.28068215	0.28002018	0.27971571	0.27917756	0.27916386	0.27860638	0.27792677	0.27763638	0.27739109	0.27721657	0.27688568	0.27632482	0.27595657	0.27576823	0.27521286	0.27485133	0.27441382	0.27406166	0.27392523	0.27356258	0.27307709	0.27266858	0.27221532	0.27190613	0.27185689	0.27082867	0.27077042	0.27031319	0.27010714	0.26985975	0.26941924	0.26889122	0.26862229	0.26796329	0.26748627	0.26715553	0.26672445	0.26654020	0.26599634	0.26571793	0.26531462	0.26515417	0.26488076	0.26415910	0.26391738	0.26353749	0.26302235	0.26283854	0.26209940	0.26190115	0.26170195	0.26115634	0.26086670	0.26010264	0.26008295	0.25985531	0.25901687	0.25827061	0.25813569	0.25785540	0.25768313	0.25719884	0.25691848	0.25679230	0.25657598	0.25587661	0.25562981	0.25537819	0.25518525	0.25464281	0.25407821	0.25356069	0.25316051	0.25293784	0.25264163	0.25228280	0.25193496	0.25177903	0.25103840	0.25090366	0.25044631	0.25006495	0.24979849	0.24948331	0.24926636	0.24910403	0.24861558	0.24816607	0.24755602	0.24711789	0.24702886	0.24657081	0.24643562	0.24620469	0.24590230	0.24536787	0.24514303	0.24440976	0.24401853	0.24377925	0.24338939	0.24323067	0.24287067	0.24231990	0.24174185	0.24124035	0.24097334	0.24082761	0.24054644	0.24015788	0.23942803	0.23891693	0.23890053	0.23833772	0.23814677	0.23789367	0.23743808	0.23707847	0.23689820	0.23647588	0.23636746	0.23607554	0.23599655	0.23546270	0.23513246	0.23443717	0.23393126	0.23363640	0.23316287	0.23295136	0.23287477	0.23228426	0.23198643	0.23128453	0.23108262	0.23075118	0.23020710	0.22971634	0.22938124	0.22926895	0.22902279	0.22864048	0.22821498	0.22794461	0.22765866	0.22701624	0.22685453	0.22673183	0.22606050	0.22547691	0.22529824	0.22518419	0.22440820	0.22433673	0.22400737	0.22326134	0.22290299	0.22246594	0.22216922	0.22186804	0.22171510	0.22124988	0.22075868	0.22060093	0.22001230	0.21991717	0.21938446	0.21886380	0.21858969	0.21841508	0.21802655	0.21768609	0.21709409	0.21680200	0.21652863	0.21619958	0.21592688	0.21541832	0.21488661	0.21459127	0.21442340	0.21404708	0.21347894	0.21324469	0.21316506	0.21297281	0.21278292	0.21191717	0.21145058	0.21078974	0.21055955	0.21031846	0.21013336	0.20987001	0.20961575	0.20958985	0.20944931	0.20816422	0.20799732	0.20767415	0.20757695	0.20736141	0.20696416	0.20634697	0.20606063	0.20574462	0.20551577	0.20509242	0.20441399	0.20405412	0.20383656	0.20356672	0.20330411	0.20296617	0.20264092	0.20217399	0.20151249	0.20139200	0.20096882	0.20056656	0.20035430	0.20025096	0.19983485	0.19947314	0.19903862	0.19888966	0.19880502	0.19833116	0.19800422	0.19747062	0.19738189	0.19692309	0.19624075	0.19597421	0.19593631	0.19536419	0.19512670	0.19504874	0.19466718	0.19439367	0.19404050	0.19391279	0.19352042	0.19304357	0.19242978	0.19218406	0.19201652	0.19179787	0.19140743	0.19078201	0.19032234	0.19012320	0.18969499	0.18927563	0.18914739	0.18881519	0.18840407	0.18800059	0.18773157	0.18761632	0.18723307	0.18691547	0.18658204	0.18597372	0.18571290	0.18533316	0.18477450	0.18452866	0.18416542	0.18390628	0.18377680	0.18316197	0.18312351	0.18276196	0.18259904	0.18256387	0.18211211	0.18175068	0.18127303	0.18081925	0.18066577	0.18016050	0.17957835	0.17945440	0.17911127	0.17879297	0.17856434	0.17818074	0.17794389	0.17779071	0.17755971	0.17691492	0.17651762	0.17620292	0.17598180	0.17538970	0.17526847	0.17490222	0.17464382	0.17427819	0.17380160	0.17357992	0.17313371	0.17283730	0.17233806	0.17200041	0.17175667	0.17149010	0.17063572	0.17035682	0.16998675	0.16982478	0.16972565	0.16914761	0.16886223	0.16862944	0.16783558	0.16771995	0.16727245	0.16658672	0.16640524	0.16617801	0.16578704	0.16557651	0.16547041	0.16514519	0.16501800	0.16487113	0.16463218	0.16416719	0.16372609	0.16362246	0.16318869	0.16256578	0.16227570	0.16210607	0.16164464	0.16146945	0.16071453	0.16065430	0.16030458	0.16003356	0.15978613	0.15898536	0.15880093	0.15846493	0.15830861	0.15808053	0.15741975	0.15673746	0.15650113	0.15632415	0.15616786	0.15587784	0.15537974	0.15489938	0.15482872	0.15448991	0.15423640	0.15370217	0.15350948	0.15324554	0.15286319	0.15252787	0.15219097	0.15198480	0.15169947	0.15131018	0.15098442	0.15029434	0.15014215	0.15000165	0.14955478	0.14924522	0.14904527	0.14856843	0.14820183	0.14788811	0.14785059	0.14764065	0.14742310	0.14718820	0.14675903	0.14651417	0.14599406	0.14547816	0.14524385	0.14488042	0.14446489	0.14433936	0.14409518	0.14375373	0.14348335	0.14321205	0.14244200	0.14224355	0.14207872	0.14193614	0.14183232	0.14108954	0.14083700	0.14050638	0.14009089	0.13957207	0.13947628	0.13921351	0.13883500	0.13847410	0.13818351	0.13781604	0.13762571	0.13720737	0.13718044	0.13677291	0.13645428	0.13601775	0.13590242	0.13563984	0.13523962	0.13506484	0.13450380	0.13430514	0.13410814	0.13376871	0.13338125	0.13314565	0.13295589	0.13247897	0.13184018	0.13158606	0.13121110	0.13090086	0.13062101	0.13020972	0.12988417	0.12958319	0.12944059	0.12912864	0.12890043	0.12863357	0.12851527	0.12803768	0.12772639	0.12750727	0.12716877	0.12648883	0.12613616	0.12556639	0.12517405	0.12504736	0.12462642	0.12431944	0.12409265	0.12373907	0.12332790	0.12309300	0.12301006	0.12291562	0.12206579	0.12179026	0.12141960	0.12113060	0.12101817	0.12070179	0.12038272	0.12018090	0.11988414	0.11968319	0.11895108	0.11878169	0.11858197	0.11798625	0.11758375	0.11732705	0.11704755	0.11686628	0.11655030	0.11632171	0.11583003	0.11559100	0.11507666	0.11481698	0.11473935	0.11436551	0.11411704	0.11367673	0.11345761	0.11299599	0.11288760	0.11261038	0.11219468	0.11175309	0.11165486	0.11108602	0.11093963	0.11067194	0.11038071	0.10987637	0.10973174	0.10925487	0.10893948	0.10883772	0.10850653	0.10834084	0.10812313	0.10771600	0.10758030	0.10701564	0.10672584	0.10657288	0.10633557	0.10603011	0.10549890	0.10531172	0.10511419	0.10469207	0.10434795	0.10400987	0.10355480	0.10330693	0.10299861	0.10268893	0.10259973	0.10206254	0.10199763	0.10174986	0.10117468	0.10096992	0.10050405	0.10024735	0.09984772	0.09948715	0.09926371	0.09901709	0.09880941	0.09843905	0.09794352	0.09761615	0.09739135	0.09716382	0.09702677	0.09688787	0.09652767	0.09615042	0.09613958	0.09524188	0.09519156	0.09490557	0.09459554	0.09420098	0.09398203	0.09364487	0.09335540	0.09318187	0.09277094	0.09268350	0.09236376	0.09197836	0.09130060	0.09094114	0.09066440	0.09033955	0.09033422	0.08996522	0.08986516	0.08955499	0.08892674	0.08853373	0.08837393	0.08793577	0.08774818	0.08753432	0.08714048	0.08641517	0.08612627	0.08587533	0.08555824	0.08498635	0.08491269	0.08442257	0.08429348	0.08398079	0.08381876	0.08336204	0.08310047	0.08299671	0.08214528	0.08192594	0.08177565	0.08161683	0.08123594	0.08080901	0.08068151	0.08036965	0.08017905	0.07972222	0.07938991	0.07901764	0.07880478	0.07861536	0.07827032	0.07814158	0.07789395	0.07761186	0.07687327	0.07649661	0.07621888	0.07600969	0.07579911	0.07557881	0.07512872	0.07495598	0.07491286	0.07428722	0.07406211	0.07378909	0.07370012	0.07316143	0.07287656	0.07242343	0.07229280	0.07188222	0.07168401	0.07146283	0.07126455	0.07103669	0.07075508	0.07036452	0.07008444	0.06955013	0.06913172	0.06909906	0.06860463	0.06827708	0.06820719	0.06786117	0.06769413	0.06737432	0.06730518	0.06681718	0.06665923	0.06648610	0.06590450	0.06536779	0.06530542	0.06500883	0.06477748	0.06432346	0.06403853	0.06401619	0.06346934	0.06315037	0.06292782	0.06262972	0.06252533	0.06224633	0.06172613	0.06163530	0.06112970	0.06074331	0.06035277	0.06007981	0.05987560	0.05962405	0.05916204	0.05887032	0.05872521	0.05850286	0.05826190	0.05777937	0.05757718	0.05741327	0.05698813	0.05661464	0.05610983	0.05597660	0.05585512	0.05552427	0.05516089	0.05489455	0.05469709	0.05426001	0.05401458	0.05344263	0.05322070	0.05299752	0.05289116	0.05248354	0.05220406	0.05179713	0.05155863	0.05122051	0.05080973	0.05057579	0.05037249	0.05013554	0.04968510	0.04923377	0.04905331	0.04896536	0.04864971	0.04862532	0.04828463	0.04775139	0.04756692	0.04737376	0.04695624	0.04663600	0.04639031	0.04597932	0.04563796	0.04522928	0.04487693	0.04481983	0.04447625	0.04428609	0.04415728	0.04395231	0.04354835	0.04308848	0.04284927	0.04240602	0.04209482	0.04204723	0.04160588	0.04137834	0.04120643	0.04088807	0.04072568	0.04028362	0.04006160	0.03955041	0.03948314	0.03904760	0.03896542	0.03850473	0.03833175	0.03801935	0.03784367	0.03746072	0.03739753	0.03684906	0.03649395	0.03635092	0.03621907	0.03602088	0.03573080	0.03534867	0.03506573	0.03485195	0.03459346	0.03413501	0.03367895	0.03355023	0.03316198	0.03275038	0.03265186	0.03251382	0.03189621	0.03162033	0.03153528	0.03120969	0.03069596	0.03039483	0.03028921	0.02982982	0.02944538	0.02928335	0.02914126	0.02876878	0.02820946	0.02808518	0.02765160	0.02764098	0.02741643	0.02704973	0.02673961	0.02670250	0.02629943	0.02558486	0.02544807	0.02520329	0.02481064	0.02447563	0.02438191	0.02424860	0.02386979	0.02365464	0.02337204	0.02310894	0.02285956	0.02268407	0.02209005	0.02200764	0.02177661	0.02145654	0.02135770	0.02091524	0.02034430	0.01990717	0.01975097	0.01945988	0.01924762	0.01894571	0.01837561	0.01820037	0.01801002	0.01783417	0.01765693	0.01715542	0.01699011	0.01662171	0.01640573	0.01620886	0.01592023	0.01583053	0.01546243	0.01517136	0.01494884	0.01467492	0.01415733	0.01400288	0.01361632	0.01344944	0.01313970	0.01309304	0.01246711	0.01231466	0.01191022	0.01172283	0.01152814	0.01113520	0.01093263	0.01079971	0.01042708	0.01009075	0.00970038	0.00963799	0.00942054	0.00896474	0.00883934	0.00871455	0.00817057	0.00781004	0.00756649	0.00736689	0.00700521	0.00691848	0.00660435	0.00588645	0.00566060	0.00526955	0.00505719	0.00451467	0.00428351	0.00409377	0.00400062	0.00371815	0.00340671	0.00315772	0.00300216	0.00253559	0.00232731	0.00221171	0.00180403	0.00161626	0.00150039	0.00111715	0.00081306	0.00040169	0.00004374	(4583)
